{
  "resultSet": {
    "results": [
      {
        "APPLICATION_SCRSHOT_URL": "",
        "APP_INDEX": 0,
        "SHOW_IN_STORE": "Y",
        "ARTWORK": "/webcentral/iphoneApps/appstore/apps/imegafon_icon_512.png",
        "APPLICATION_BUNDLE_URL": "http://ipaserver01.gene.com:4567/getIpa?env=dev&ipaName=iMegafon.ipa",
        "APPLICATION_BUNDLE_VERSION": "1.0201202141448",
        "APPLICATION_DESCRIPTION": "&lt;b&gt;las&lt;/b&gt;",
        "IPA_SIZE": 30.0,
        "APP_TAGS": "GT",
        "APP_DISPLAYNAME": "iMegafon iiii",
        "APPLICATION_NAME": "iMegafon",
        "APP_TYPE": "NATIVE",
        "LAST_MODIFIED": "2012-05-18 06:46:04.0",
        "APPLICATION_PLIST_URL": "https://b2bdev.gene.com/webcentral/iphoneApps/appstore/appdist/iMegafon.plist",
        "APPLICATION_VERSION": "1.5",
        "APPLICATION_BUNDLE_ID": "com.roche.iMegafon",
        "SHOW_IN_ROCHE": "Y",
        "APPLICATION_OWNER_NAME": "patrzyke@gene.com",
        "APPLICATION_ICON": "/webcentral/iphoneApps/appstore/apps/imegafon_icon.png"
      },
      {
      	"APPLICATION_SCRSHOT_URL": "/webcentral/iphoneApps/appstore/apps/peeps_1.png;/webcentral/iphoneApps/appstore/apps/peeps_2.png;/webcentral/iphoneApps/appstore/apps/peeps_2.png;/webcentral/iphoneApps/appstore/apps/peeps_2.png;",
        "ARTWORK": "/webcentral/iphoneApps/appstore/apps/peeps_icon_512.png",
        "SHOW_IN_STORE": "Y",
        "APP_INDEX": 1,
        "APPLICATION_BUNDLE_VERSION": "20120313041633",
        "APPLICATION_BUNDLE_URL": "http://ipaserver01.gene.com:4567/getIpa?env=dev&ipaName=Peeps.ipa",
        "IPA_SIZE": 24.0,
        "APPLICATION_DESCRIPTION": "<p>Peeps</p>",
        "APP_TAGS": "Enterprise",
        "APP_TYPE": "NATIVE",
        "APPLICATION_NAME": "Peeps",
        "APP_DISPLAYNAME": "Peeps",
        "LAST_MODIFIED": "2012-05-18 05:35:11.0",
        "APPLICATION_PLIST_URL": "https://b2bdev.gene.com/webcentral/iphoneApps/appstore/appdist/Peeps.plist",
        "SHOW_IN_ROCHE": "Y",
        "APPLICATION_BUNDLE_ID": "com.gene.gPeeps",
        "APPLICATION_VERSION": "2.3.5",
        "APPLICATION_ICON": "/webcentral/iphoneApps/appstore/apps/peeps_icon.png",
        "APPLICATION_OWNER_NAME": "mail1@roche.com"
      },
      {
        "APPLICATION_SCRSHOT_URL": "",
        "APP_INDEX": 2,
        "SHOW_IN_STORE": "Y",
        "ARTWORK": "/webcentral/iphoneApps/appstore/apps/imegafon_icon_512.png",
        "APPLICATION_BUNDLE_URL": "http://ipaserver01.gene.com:4567/getIpa?env=dev&ipaName=iMegafon.ipa",
        "APPLICATION_BUNDLE_VERSION": "1.0201202141448",
        "APPLICATION_DESCRIPTION": "&lt;b&gt;las&lt;/b&gt;",
        "IPA_SIZE": 30.0,
        "APP_TAGS": "GT",
        "APP_DISPLAYNAME": "iMegafon iiii2",
        "APPLICATION_NAME": "iMegafon2",
        "APP_TYPE": "NATIVE",
        "LAST_MODIFIED": "2012-05-18 06:46:04.0",
        "APPLICATION_PLIST_URL": "https://b2bdev.gene.com/webcentral/iphoneApps/appstore/appdist/iMegafon.plist",
        "APPLICATION_VERSION": "1.0",
        "APPLICATION_BUNDLE_ID": "com.roche.iMegafon",
        "SHOW_IN_ROCHE": "Y",
        "APPLICATION_OWNER_NAME": "patrzyke@gene.com",
        "APPLICATION_ICON": "/webcentral/iphoneApps/appstore/apps/imegafon_icon.png"
      },
      {
      	"APPLICATION_SCRSHOT_URL": "/webcentral/iphoneApps/appstore/apps/peeps_1.png;/webcentral/iphoneApps/appstore/apps/peeps_2.png;",
        "ARTWORK": "/webcentral/iphoneApps/appstore/apps/peeps_icon_512.png",
        "SHOW_IN_STORE": "Y",
        "APP_INDEX": 3,
        "APPLICATION_BUNDLE_VERSION": "20120313041633",
        "APPLICATION_BUNDLE_URL": "http://ipaserver01.gene.com:4567/getIpa?env=dev&ipaName=Peeps.ipa",
        "IPA_SIZE": 24.0,
        "APPLICATION_DESCRIPTION": "<p>Peeps</p>",
        "APP_TAGS": "Enterprise",
        "APP_TYPE": "NATIVE",
        "APPLICATION_NAME": "Peeps3",
        "APP_DISPLAYNAME": "Peeps3",
        "LAST_MODIFIED": "2012-05-18 05:35:11.0",
        "APPLICATION_PLIST_URL": "https://b2bdev.gene.com/webcentral/iphoneApps/appstore/appdist/Peeps.plist",
        "SHOW_IN_ROCHE": "Y",
        "APPLICATION_BUNDLE_ID": "com.gene.gPeeps",
        "APPLICATION_VERSION": "2.3.3",
        "APPLICATION_ICON": "/webcentral/iphoneApps/appstore/apps/peeps_icon.png",
        "APPLICATION_OWNER_NAME": "mail1@roche.com"
      },
      {
      	"APPLICATION_SCRSHOT_URL": "/webcentral/iphoneApps/appstore/apps/peeps_1.png;/webcentral/iphoneApps/appstore/apps/peeps_2.png;",
        "ARTWORK": "/webcentral/iphoneApps/appstore/apps/peeps_icon_512.png",
        "SHOW_IN_STORE": "Y",
        "APP_INDEX": 5,
        "APPLICATION_BUNDLE_VERSION": "20120313041633",
        "APPLICATION_BUNDLE_URL": "http://ipaserver01.gene.com:4567/getIpa?env=dev&ipaName=Peeps.ipa",
        "IPA_SIZE": 24.0,
        "APPLICATION_DESCRIPTION": "<p>Peeps</p>",
        "APP_TAGS": "Enterprise",
        "APP_TYPE": "NATIVE",
        "APPLICATION_NAME": "Peeps5",
        "APP_DISPLAYNAME": "Peeps5",
        "LAST_MODIFIED": "2012-05-18 05:35:11.0",
        "APPLICATION_PLIST_URL": "https://b2bdev.gene.com/webcentral/iphoneApps/appstore/appdist/Peeps.plist",
        "SHOW_IN_ROCHE": "Y",
        "APPLICATION_BUNDLE_ID": "com.gene.gPeeps",
        "APPLICATION_VERSION": "2.3.3",
        "APPLICATION_ICON": "/webcentral/iphoneApps/appstore/apps/peeps_icon.png",
        "APPLICATION_OWNER_NAME": "mail1@roche.com"
      },
      {
        "APPLICATION_SCRSHOT_URL": "",
        "APP_INDEX": 6,
        "SHOW_IN_STORE": "Y",
        "ARTWORK": "/webcentral/iphoneApps/appstore/apps/imegafon_icon_512.png",
        "APPLICATION_BUNDLE_URL": "http://ipaserver01.gene.com:4567/getIpa?env=dev&ipaName=iMegafon.ipa",
        "APPLICATION_BUNDLE_VERSION": "1.0201202141448",
        "APPLICATION_DESCRIPTION": "&lt;b&gt;las&lt;/b&gt;",
        "IPA_SIZE": 30.0,
        "APP_TAGS": "GT",
        "APP_DISPLAYNAME": "iMegafon iiii6",
        "APPLICATION_NAME": "iMegafon6",
        "APP_TYPE": "NATIVE",
        "LAST_MODIFIED": "2012-05-18 06:46:04.0",
        "APPLICATION_PLIST_URL": "https://b2bdev.gene.com/webcentral/iphoneApps/appstore/appdist/iMegafon.plist",
        "APPLICATION_VERSION": "1.0",
        "APPLICATION_BUNDLE_ID": "com.roche.iMegafon",
        "SHOW_IN_ROCHE": "Y",
        "APPLICATION_OWNER_NAME": "patrzyke@gene.com",
        "APPLICATION_ICON": "/webcentral/iphoneApps/appstore/apps/imegafon_icon.png"
      },
      {
      	"APPLICATION_SCRSHOT_URL": "/webcentral/iphoneApps/appstore/apps/peeps_1.png;/webcentral/iphoneApps/appstore/apps/peeps_2.png;",
        "ARTWORK": "/webcentral/iphoneApps/appstore/apps/peeps_icon_512.png",
        "SHOW_IN_STORE": "Y",
        "APP_INDEX": 7,
        "APPLICATION_BUNDLE_VERSION": "20120313041633",
        "APPLICATION_BUNDLE_URL": "http://ipaserver01.gene.com:4567/getIpa?env=dev&ipaName=Peeps.ipa",
        "IPA_SIZE": 24.0,
        "APPLICATION_DESCRIPTION": "<p>Peeps</p>",
        "APP_TAGS": "Enterprise",
        "APP_TYPE": "NATIVE",
        "APPLICATION_NAME": "Peeps7",
        "APP_DISPLAYNAME": "Peeps7",
        "LAST_MODIFIED": "2012-05-18 05:35:11.0",
        "APPLICATION_PLIST_URL": "https://b2bdev.gene.com/webcentral/iphoneApps/appstore/appdist/Peeps.plist",
        "SHOW_IN_ROCHE": "Y",
        "APPLICATION_BUNDLE_ID": "com.gene.gPeeps",
        "APPLICATION_VERSION": "2.3.3",
        "APPLICATION_ICON": "/webcentral/iphoneApps/appstore/apps/peeps_icon.png",
        "APPLICATION_OWNER_NAME": "mail1@roche.com"
      },
      {
        "APPLICATION_SCRSHOT_URL": "",
        "APP_INDEX": 8,
        "SHOW_IN_STORE": "Y",
        "ARTWORK": "/webcentral/iphoneApps/appstore/apps/imegafon_icon_512.png",
        "APPLICATION_BUNDLE_URL": "http://ipaserver01.gene.com:4567/getIpa?env=dev&ipaName=iMegafon.ipa",
        "APPLICATION_BUNDLE_VERSION": "1.0201202141448",
        "APPLICATION_DESCRIPTION": "&lt;b&gt;las&lt;/b&gt;",
        "IPA_SIZE": 30.0,
        "APP_TAGS": "GT",
        "APP_DISPLAYNAME": "iMegafon iiii8",
        "APPLICATION_NAME": "iMegafon8",
        "APP_TYPE": "NATIVE",
        "LAST_MODIFIED": "2012-05-18 06:46:04.0",
        "APPLICATION_PLIST_URL": "https://b2bdev.gene.com/webcentral/iphoneApps/appstore/appdist/iMegafon.plist",
        "APPLICATION_VERSION": "1.0",
        "APPLICATION_BUNDLE_ID": "com.roche.iMegafon",
        "SHOW_IN_ROCHE": "Y",
        "APPLICATION_OWNER_NAME": "patrzyke@gene.com",
        "APPLICATION_ICON": "/webcentral/iphoneApps/appstore/apps/imegafon_icon.png"
      },
      {
      	"APPLICATION_SCRSHOT_URL": "/webcentral/iphoneApps/appstore/apps/peeps_1.png;/webcentral/iphoneApps/appstore/apps/peeps_2.png;",
        "ARTWORK": "/webcentral/iphoneApps/appstore/apps/peeps_icon_512.png",
        "SHOW_IN_STORE": "Y",
        "APP_INDEX": 9,
        "APPLICATION_BUNDLE_VERSION": "20120313041633",
        "APPLICATION_BUNDLE_URL": "http://ipaserver01.gene.com:4567/getIpa?env=dev&ipaName=Peeps.ipa",
        "IPA_SIZE": 24.0,
        "APPLICATION_DESCRIPTION": "<p>Peeps</p>",
        "APP_TAGS": "Enterprise",
        "APP_TYPE": "NATIVE",
        "APPLICATION_NAME": "Peeps9",
        "APP_DISPLAYNAME": "Peeps9",
        "LAST_MODIFIED": "2012-05-18 05:35:11.0",
        "APPLICATION_PLIST_URL": "https://b2bdev.gene.com/webcentral/iphoneApps/appstore/appdist/Peeps.plist",
        "SHOW_IN_ROCHE": "Y",
        "APPLICATION_BUNDLE_ID": "com.gene.gPeeps",
        "APPLICATION_VERSION": "2.3.3",
        "APPLICATION_ICON": "/webcentral/iphoneApps/appstore/apps/peeps_icon.png",
        "APPLICATION_OWNER_NAME": "mail1@roche.com"
      },
      {
        "APPLICATION_SCRSHOT_URL": "",
        "APP_INDEX": 10,
        "SHOW_IN_STORE": "Y",
        "ARTWORK": "/webcentral/iphoneApps/appstore/apps/imegafon_icon_512.png",
        "APPLICATION_BUNDLE_URL": "http://ipaserver01.gene.com:4567/getIpa?env=dev&ipaName=iMegafon.ipa",
        "APPLICATION_BUNDLE_VERSION": "1.0201202141448",
        "APPLICATION_DESCRIPTION": "&lt;b&gt;las&lt;/b&gt;",
        "IPA_SIZE": 30.0,
        "APP_TAGS": "GT",
        "APP_DISPLAYNAME": "iMegafon iiii10",
        "APPLICATION_NAME": "iMegafon10",
        "APP_TYPE": "NATIVE",
        "LAST_MODIFIED": "2012-05-18 06:46:04.0",
        "APPLICATION_PLIST_URL": "https://b2bdev.gene.com/webcentral/iphoneApps/appstore/appdist/iMegafon.plist",
        "APPLICATION_VERSION": "1.0",
        "APPLICATION_BUNDLE_ID": "com.roche.iMegafon",
        "SHOW_IN_ROCHE": "Y",
        "APPLICATION_OWNER_NAME": "patrzyke@gene.com",
        "APPLICATION_ICON": "/webcentral/iphoneApps/appstore/apps/imegafon_icon.png"
      },
      {
      	"APPLICATION_SCRSHOT_URL": "/webcentral/iphoneApps/appstore/apps/peeps_1.png;/webcentral/iphoneApps/appstore/apps/peeps_2.png;",
        "ARTWORK": "/webcentral/iphoneApps/appstore/apps/peeps_icon_512.png",
        "SHOW_IN_STORE": "Y",
        "APP_INDEX": 11,
        "APPLICATION_BUNDLE_VERSION": "20120313041633",
        "APPLICATION_BUNDLE_URL": "http://ipaserver01.gene.com:4567/getIpa?env=dev&ipaName=Peeps.ipa",
        "IPA_SIZE": 24.0,
        "APPLICATION_DESCRIPTION": "<p>Peeps</p>",
        "APP_TAGS": "Enterprise",
        "APP_TYPE": "NATIVE",
        "APPLICATION_NAME": "Peeps11",
        "APP_DISPLAYNAME": "Peeps11",
        "LAST_MODIFIED": "2012-05-18 05:35:11.0",
        "APPLICATION_PLIST_URL": "https://b2bdev.gene.com/webcentral/iphoneApps/appstore/appdist/Peeps.plist",
        "SHOW_IN_ROCHE": "Y",
        "APPLICATION_BUNDLE_ID": "com.gene.gPeeps",
        "APPLICATION_VERSION": "2.3.3",
        "APPLICATION_ICON": "/webcentral/iphoneApps/appstore/apps/peeps_icon.png",
        "APPLICATION_OWNER_NAME": "mail1@roche.com"
      },
      {
        "APPLICATION_SCRSHOT_URL": "",
        "APP_INDEX": 12,
        "SHOW_IN_STORE": "Y",
        "ARTWORK": "/webcentral/iphoneApps/appstore/apps/imegafon_icon_512.png",
        "APPLICATION_BUNDLE_URL": "http://ipaserver01.gene.com:4567/getIpa?env=dev&ipaName=iMegafon.ipa",
        "APPLICATION_BUNDLE_VERSION": "1.0201202141448",
        "APPLICATION_DESCRIPTION": "&lt;b&gt;las&lt;/b&gt;",
        "IPA_SIZE": 30.0,
        "APP_TAGS": "GT",
        "APP_DISPLAYNAME": "iMegafon iiii12",
        "APPLICATION_NAME": "iMegafon12",
        "APP_TYPE": "NATIVE",
        "LAST_MODIFIED": "2012-05-18 06:46:04.0",
        "APPLICATION_PLIST_URL": "https://b2bdev.gene.com/webcentral/iphoneApps/appstore/appdist/iMegafon.plist",
        "APPLICATION_VERSION": "1.0",
        "APPLICATION_BUNDLE_ID": "com.roche.iMegafon",
        "SHOW_IN_ROCHE": "Y",
        "APPLICATION_OWNER_NAME": "patrzyke@gene.com",
        "APPLICATION_ICON": "/webcentral/iphoneApps/appstore/apps/imegafon_icon.png"
      },
      {
      	"APPLICATION_SCRSHOT_URL": "/webcentral/iphoneApps/appstore/apps/peeps_1.png;/webcentral/iphoneApps/appstore/apps/peeps_2.png;",
        "ARTWORK": "/webcentral/iphoneApps/appstore/apps/peeps_icon_512.png",
        "SHOW_IN_STORE": "Y",
        "APP_INDEX": 13,
        "APPLICATION_BUNDLE_VERSION": "20120313041633",
        "APPLICATION_BUNDLE_URL": "http://ipaserver01.gene.com:4567/getIpa?env=dev&ipaName=Peeps.ipa",
        "IPA_SIZE": 24.0,
        "APPLICATION_DESCRIPTION": "<p>Peeps</p>",
        "APP_TAGS": "Enterprise",
        "APP_TYPE": "NATIVE",
        "APPLICATION_NAME": "Peeps13",
        "APP_DISPLAYNAME": "Peeps13",
        "LAST_MODIFIED": "2012-05-18 05:35:11.0",
        "APPLICATION_PLIST_URL": "https://b2bdev.gene.com/webcentral/iphoneApps/appstore/appdist/Peeps.plist",
        "SHOW_IN_ROCHE": "Y",
        "APPLICATION_BUNDLE_ID": "com.gene.gPeeps",
        "APPLICATION_VERSION": "2.3.3",
        "APPLICATION_ICON": "/webcentral/iphoneApps/appstore/apps/peeps_icon.png",
        "APPLICATION_OWNER_NAME": "mail1@roche.com"
      },
      {
        "APPLICATION_SCRSHOT_URL": "",
        "APP_INDEX": 14,
        "SHOW_IN_STORE": "Y",
        "ARTWORK": "/webcentral/iphoneApps/appstore/apps/imegafon_icon_512.png",
        "APPLICATION_BUNDLE_URL": "http://ipaserver01.gene.com:4567/getIpa?env=dev&ipaName=iMegafon.ipa",
        "APPLICATION_BUNDLE_VERSION": "1.0201202141448",
        "APPLICATION_DESCRIPTION": "&lt;b&gt;las&lt;/b&gt;",
        "IPA_SIZE": 30.0,
        "APP_TAGS": "GT",
        "APP_DISPLAYNAME": "iMegafon iiii14",
        "APPLICATION_NAME": "iMegafon14",
        "APP_TYPE": "NATIVE",
        "LAST_MODIFIED": "2012-05-18 06:46:04.0",
        "APPLICATION_PLIST_URL": "https://b2bdev.gene.com/webcentral/iphoneApps/appstore/appdist/iMegafon.plist",
        "APPLICATION_VERSION": "1.0",
        "APPLICATION_BUNDLE_ID": "com.roche.iMegafon",
        "SHOW_IN_ROCHE": "Y",
        "APPLICATION_OWNER_NAME": "patrzyke@gene.com",
        "APPLICATION_ICON": "/webcentral/iphoneApps/appstore/apps/imegafon_icon.png"
      },
      {
      	"APPLICATION_SCRSHOT_URL": "/webcentral/iphoneApps/appstore/apps/peeps_1.png;/webcentral/iphoneApps/appstore/apps/peeps_2.png;",
        "ARTWORK": "/webcentral/iphoneApps/appstore/apps/peeps_icon_512.png",
        "SHOW_IN_STORE": "Y",
        "APP_INDEX": 15,
        "APPLICATION_BUNDLE_VERSION": "20120313041633",
        "APPLICATION_BUNDLE_URL": "http://ipaserver01.gene.com:4567/getIpa?env=dev&ipaName=Peeps.ipa",
        "IPA_SIZE": 24.0,
        "APPLICATION_DESCRIPTION": "<p>Peeps</p>",
        "APP_TAGS": "Enterprise",
        "APP_TYPE": "NATIVE",
        "APPLICATION_NAME": "Peeps15",
        "APP_DISPLAYNAME": "Peeps15",
        "LAST_MODIFIED": "2012-05-18 05:35:11.0",
        "APPLICATION_PLIST_URL": "https://b2bdev.gene.com/webcentral/iphoneApps/appstore/appdist/Peeps.plist",
        "SHOW_IN_ROCHE": "Y",
        "APPLICATION_BUNDLE_ID": "com.gene.gPeeps",
        "APPLICATION_VERSION": "2.3.3",
        "APPLICATION_ICON": "/webcentral/iphoneApps/appstore/apps/peeps_icon.png",
        "APPLICATION_OWNER_NAME": "mail1@roche.com"
      },
      {
        "APPLICATION_SCRSHOT_URL": "",
        "APP_INDEX": 16,
        "SHOW_IN_STORE": "Y",
        "ARTWORK": "/webcentral/iphoneApps/appstore/apps/imegafon_icon_512.png",
        "APPLICATION_BUNDLE_URL": "http://ipaserver01.gene.com:4567/getIpa?env=dev&ipaName=iMegafon.ipa",
        "APPLICATION_BUNDLE_VERSION": "1.0201202141448",
        "APPLICATION_DESCRIPTION": "&lt;b&gt;las&lt;/b&gt;",
        "IPA_SIZE": 30.0,
        "APP_TAGS": "GT",
        "APP_DISPLAYNAME": "iMegafon iiii16",
        "APPLICATION_NAME": "iMegafon16",
        "APP_TYPE": "NATIVE",
        "LAST_MODIFIED": "2012-05-18 06:46:04.0",
        "APPLICATION_PLIST_URL": "https://b2bdev.gene.com/webcentral/iphoneApps/appstore/appdist/iMegafon.plist",
        "APPLICATION_VERSION": "1.0",
        "APPLICATION_BUNDLE_ID": "com.roche.iMegafon",
        "SHOW_IN_ROCHE": "Y",
        "APPLICATION_OWNER_NAME": "patrzyke@gene.com",
        "APPLICATION_ICON": "/webcentral/iphoneApps/appstore/apps/imegafon_icon.png"
      },
      {
      	"APPLICATION_SCRSHOT_URL": "/webcentral/iphoneApps/appstore/apps/peeps_1.png;/webcentral/iphoneApps/appstore/apps/peeps_2.png;",
        "ARTWORK": "/webcentral/iphoneApps/appstore/apps/peeps_icon_512.png",
        "SHOW_IN_STORE": "Y",
        "APP_INDEX": 17,
        "APPLICATION_BUNDLE_VERSION": "20120313041633",
        "APPLICATION_BUNDLE_URL": "http://ipaserver01.gene.com:4567/getIpa?env=dev&ipaName=Peeps.ipa",
        "IPA_SIZE": 24.0,
        "APPLICATION_DESCRIPTION": "<p>Peeps</p>",
        "APP_TAGS": "Enterprise",
        "APP_TYPE": "NATIVE",
        "APPLICATION_NAME": "Peeps17",
        "APP_DISPLAYNAME": "Peeps",
        "LAST_MODIFIED": "2012-05-18 05:35:11.0",
        "APPLICATION_PLIST_URL": "https://b2bdev.gene.com/webcentral/iphoneApps/appstore/appdist/Peeps.plist",
        "SHOW_IN_ROCHE": "Y",
        "APPLICATION_BUNDLE_ID": "com.gene.gPeeps",
        "APPLICATION_VERSION": "2.3.3",
        "APPLICATION_ICON": "/webcentral/iphoneApps/appstore/apps/peeps_icon.png",
        "APPLICATION_OWNER_NAME": "mail1@roche.com"
      }
    ],
    "serviceStatus": "SUCCESS"
  }
}
