{
	"status": "success",
	"images" : [{
		"src": "/img/banners/mobile/banner_iphone_ideastorm-1.png",
		"width": "312",
		"height": "95",
		"href": "http://genentech.uservoice.com",
		"type": "normal"
	},
	{
		"src": "/img/banners/mobile/banner_iphone_appstore-1.png",
		"width": "312",
		"height": "95",
		"href": "#",
		"type": "normal"
	}]
}